<?xml version="1.0" encoding="UTF-8"?>
<svg width="18px" height="19px" viewBox="0 0 18 19" version="1.1" xmlns="http://www.w3.org/2000/svg" xmlns:xlink="http://www.w3.org/1999/xlink">
    <!-- Generator: Sketch 42 (36781) - http://www.bohemiancoding.com/sketch -->
    <title>Fill 1</title>
    <desc>Created with Sketch.</desc>
    <defs></defs>
    <g id="NEW-" stroke="none" stroke-width="1" fill="none" fill-rule="evenodd">
        <g id="6ICS---Home-v1.1---Sneackers-slide" transform="translate(-1204.000000, -26.000000)" fill="#FFFFFF">
            <path d="M1217.0224,39.6007452 L1216.48586,40.0035377 C1215.35248,40.851644 1214.00339,41.3008234 1212.58318,41.3008234 C1208.99129,41.3008234 1206.06892,38.3784515 1206.06892,34.7865627 C1206.06892,31.1946739 1208.99129,28.272302 1212.58318,28.272302 C1216.17507,28.272302 1219.09744,31.1946739 1219.09744,34.7865627 C1219.09744,35.9075784 1218.8083,37.0115855 1218.26171,37.9810708 L1219.60847,38.7410421 C1220.28572,37.5403957 1220.64367,36.1727566 1220.64367,34.7865627 C1220.64367,30.3419288 1217.02782,26.7260735 1212.58318,26.7260735 C1208.13855,26.7260735 1204.52269,30.3419288 1204.52269,34.7865627 C1204.52269,39.2311966 1208.13855,42.8470519 1212.58318,42.8470519 C1214.11317,42.8470519 1215.57745,42.4257047 1216.85696,41.622439 L1220.17826,44.9437378 L1221.27144,43.8505542 L1217.0224,39.6007452 Z" id="Fill-1"></path>
        </g>
    </g>
</svg>