<?xml version="1.0" encoding="UTF-8"?>
<svg width="49px" height="28px" viewBox="0 0 49 28" version="1.1" xmlns="http://www.w3.org/2000/svg" xmlns:xlink="http://www.w3.org/1999/xlink">
    <!-- Generator: Sketch 42 (36781) - http://www.bohemiancoding.com/sketch -->
    <title>Page 1</title>
    <desc>Created with Sketch.</desc>
    <defs>
        <polygon id="path-1" points="0 0.37434033 0 23.1760761 47.9175837 23.1760761 47.9175837 0.37434033 0 0.37434033"></polygon>
    </defs>
    <g id="NEW-" stroke="none" stroke-width="1" fill="none" fill-rule="evenodd">
        <g id="6ICS---Home-v1.1-banner-v1-style" transform="translate(-31.000000, -22.000000)">
            <g id="Page-1" transform="translate(31.359824, 21.261969)">
                <path d="M18.1658643,26.2458171 C18.1232704,26.2447522 13.9948585,26.2926703 8.17440468,25.6729294 C5.10764524,25.3449565 3.50505047,25.0734205 2.44446283,24.8945262 C1.52337015,24.7390585 0.967520007,24.645352 0.235970101,24.645352 L0.235970101,26.775046 C0.788625707,26.775046 1.22308329,26.8485205 2.08880393,26.9944045 C3.17494789,27.1786231 4.81694201,27.4565481 7.94865711,27.7898453 C13.0407556,28.3329172 16.7975359,28.376576 17.8804853,28.376576 C18.0625742,28.376576 18.1690589,28.3755111 18.1935503,28.3755111 L47.8953284,27.9889716 L47.8676424,25.8592776 L18.1658643,26.2458171 Z" id="Fill-1" fill="#FFFFFF"></path>
                <g id="Group-5" transform="translate(-0.000000, 0.690553)">
                    <mask id="mask-2" fill="white">
                        <use xlink:href="#path-1"></use>
                    </mask>
                    <g id="Clip-4"></g>
                    <path d="M2.1941173,21.3999112 L2.72547596,20.5682657 L12.6147103,17.4567827 C13.305796,17.3130283 18.9984682,16.041601 24.338676,12.0633325 C27.9218863,9.3958907 30.5126591,6.07250313 31.9395541,3.98007873 L31.5636631,8.14043606 C31.5349122,8.46627925 31.6563048,8.78573335 31.8937657,9.01041608 C31.9874722,9.09879838 34.2289752,11.1752501 38.4447046,11.8375849 C40.7426445,12.1985681 42.1695395,12.0026362 43.0416492,11.684247 L43.7125028,12.7608073 L43.2642022,14.3133543 C43.1619769,14.670078 43.2599428,15.0619417 43.5101819,15.3356074 C43.516571,15.3441262 44.1948785,16.0959082 44.790128,17.7826259 C45.3800533,19.4533709 45.7144152,21.547925 45.7751115,21.9419184 L45.7878897,23.1760761 L47.9175837,23.1526494 L47.9037407,21.8460821 C47.9026759,21.7992289 47.8994813,21.7534404 47.8930922,21.707652 C47.8781844,21.6022322 47.5203958,19.1200737 46.7984295,17.0734378 C46.3330914,15.7540923 45.8123812,14.8798529 45.4620465,14.3815045 L45.890115,12.8960429 C45.9742379,12.6053396 45.9305792,12.2933395 45.7708521,12.0377762 L44.3034929,9.6812697 C44.1171447,9.38098284 43.7934312,9.19356977 43.439902,9.17972675 C43.126837,9.1648189 42.8148368,9.30111931 42.6039971,9.53538566 C42.5039015,9.6109898 41.615819,10.1785533 38.775872,9.73238236 C36.1606077,9.32241626 34.4515282,8.27993102 33.7370159,7.76135052 L34.2641152,1.92066458 C34.3056442,1.45745612 34.042627,1.019804 33.6124288,0.841974543 L32.6860119,0.45649992 C32.1834041,0.246725056 31.6051921,0.451175685 31.3432398,0.927162305 C31.3123592,0.982534351 28.2498592,6.4952474 23.0672487,10.3563827 C17.8942218,14.2079344 12.1994199,15.3675528 12.1419182,15.3792661 C12.1046486,15.3877849 12.0663141,15.3963037 12.0279796,15.408017 L1.71600098,18.6526059 C1.47747525,18.7271452 1.27302462,18.8847425 1.13885389,19.0955823 L0.250771475,20.4862725 C0.152805548,20.6374807 0.0963686558,20.8121157 0.0857201856,20.9931397 L-0.000532423513,22.3774408 L2.12596709,22.508417 L2.1941173,21.3999112 Z" id="Fill-3" fill="#FFFFFF" mask="url(#mask-2)"></path>
                </g>
            </g>
        </g>
    </g>
</svg>